{
  "files": {
    "main.css": "/static/css/main.1987fabf.chunk.css",
    "main.js": "/static/js/main.edb33c1f.chunk.js",
    "main.js.map": "/static/js/main.edb33c1f.chunk.js.map",
    "runtime-main.js": "/static/js/runtime-main.51df4a8e.js",
    "runtime-main.js.map": "/static/js/runtime-main.51df4a8e.js.map",
    "static/js/2.8b214ef9.chunk.js": "/static/js/2.8b214ef9.chunk.js",
    "static/js/2.8b214ef9.chunk.js.map": "/static/js/2.8b214ef9.chunk.js.map",
    "index.html": "/index.html",
    "precache-manifest.9af8984f465e2105cbb3524fd7a7d046.js": "/precache-manifest.9af8984f465e2105cbb3524fd7a7d046.js",
    "service-worker.js": "/service-worker.js",
    "static/css/main.1987fabf.chunk.css.map": "/static/css/main.1987fabf.chunk.css.map",
    "static/js/2.8b214ef9.chunk.js.LICENSE.txt": "/static/js/2.8b214ef9.chunk.js.LICENSE.txt",
    "static/media/icon.png": "/static/media/icon.b693242c.png",
    "static/media/login-web-bg.jpg": "/static/media/login-web-bg.e874f612.jpg",
    "static/media/logo.png": "/static/media/logo.441bc10d.png"
  },
  "entrypoints": [
    "static/js/runtime-main.51df4a8e.js",
    "static/js/2.8b214ef9.chunk.js",
    "static/css/main.1987fabf.chunk.css",
    "static/js/main.edb33c1f.chunk.js"
  ]
}